<?xml version="1.0" encoding="iso-8859-1"?>
<!-- Generator: Adobe Illustrator 22.1.0, SVG Export Plug-In . SVG Version: 6.00 Build 0)  -->
<svg xmlns="http://www.w3.org/2000/svg" xmlns:xlink="http://www.w3.org/1999/xlink" version="1.1" id="Layer_1_1_" x="0px" y="0px" viewBox="0 0 64 64" style="enable-background:new 0 0 64 64;" xml:space="preserve" width="512" height="512">
<g>
	<path d="M60,7.056c-0.771,0-1.468,0.301-2,0.78c-0.532-0.48-1.229-0.78-2-0.78s-1.468,0.301-2,0.78c-0.532-0.48-1.229-0.78-2-0.78   s-1.468,0.301-2,0.78c-0.532-0.48-1.229-0.78-2-0.78c-1.654,0-3,1.346-3,3v2h-3c-1.654,0-3,1.346-3,3v10.056   c0,0.772,0.183,1.545,0.528,2.236l2.155,4.311C41.891,32.073,42,32.537,42,33v4c-1.103,0-2,0.897-2,2v6h-4v2h-4v13   c0,0.552-0.449,1-1,1s-1-0.448-1-1V41c0-1.654-1.346-3-3-3s-3,1.346-3,3v11c0,0.552-0.449,1-1,1h-6c-0.551,0-1-0.448-1-1v-2h-2v2   c0,1.654,1.346,3,3,3h6c1.654,0,3-1.346,3-3V41c0-0.552,0.449-1,1-1s1,0.448,1,1v19c0,1.654,1.346,3,3,3s3-1.346,3-3V49h2v2h4v6   c0,1.103,0.897,2,2,2v4h18v-4c1.103,0,2-0.897,2-2V39c0-1.103-0.897-2-2-2v-4c0-0.463,0.109-0.927,0.317-1.342l2.155-4.311   C62.817,26.657,63,25.884,63,25.111v-7.056v-8C63,8.401,61.654,7.056,60,7.056z M56,9.056c0.551,0,1,0.449,1,1v8   c0,0.551-0.449,1-1,1s-1-0.449-1-1v-8C55,9.504,55.449,9.056,56,9.056z M52,9.056c0.551,0,1,0.449,1,1v8c0,0.551-0.449,1-1,1   s-1-0.449-1-1v-1.382c0.615-0.703,1-1.612,1-2.618c0-0.737-0.405-1.375-1-1.722v-2.278C51,9.504,51.449,9.056,52,9.056z M49,18.056   c0,0.551-0.449,1-1,1s-1-0.449-1-1h1c0.347,0,0.678-0.058,1-0.142V18.056z M47,10.056c0-0.551,0.449-1,1-1s1,0.449,1,1v2h-2V10.056   z M38,49v-2h2v2H38z M58,61H44v-2h14V61z M60.001,57H42v-2h16V41h-4v2h2v10H42v-4h10v2h2v-6h-2v2H42v-4h10v-2H42v-2h18L60.001,57z    M60.683,26.453l-2.155,4.311C58.183,31.455,58,32.228,58,33v4H44v-4c0-0.772-0.183-1.545-0.528-2.236l-2.155-4.311   C41.109,26.039,41,25.575,41,25.111V15.056c0-0.551,0.449-1,1-1h8c0,1.103-0.897,2-2,2h-5v2.535l1.453,0.969   C47.3,21.458,49,24.634,49,28.056h2c0-2.59-0.825-5.054-2.285-7.096c0.487-0.12,0.924-0.359,1.285-0.685   c0.532,0.48,1.229,0.78,2,0.78s1.468-0.301,2-0.78c0.532,0.48,1.229,0.78,2,0.78s1.468-0.301,2-0.78c0.532,0.48,1.229,0.78,2,0.78   c0.352,0,0.686-0.072,1-0.184v4.24C61,25.575,60.891,26.039,60.683,26.453z M60,19.056c-0.551,0-1-0.449-1-1v-8   c0-0.551,0.449-1,1-1s1,0.449,1,1v8C61,18.607,60.551,19.056,60,19.056z"/>
	<rect x="14" y="42" width="2" height="2"/>
	<rect x="14" y="46" width="2" height="2"/>
	<path d="M14,37v3h2v-3h2v-4h8c1.654,0,3-1.346,3-3V4c0-1.654-1.346-3-3-3H4C2.346,1,1,2.346,1,4v26c0,1.654,1.346,3,3,3h8v4H14z    M16,35h-2v-2h2V35z M4,3h22c0.551,0,1,0.449,1,1v19h-2V5H5v21H3V4C3,3.449,3.449,3,4,3z M23,13h-8.721l-0.464,1.394l-3-6L9.279,13   H7V7h16V13z M7,15h3.721l0.464-1.394l3,6L15.721,15H23v8h-9.414l-3,3H7V15z M3,30v-2h8.414l3-3H27v5c0,0.551-0.449,1-1,1H4   C3.449,31,3,30.551,3,30z"/>
	<rect x="23" y="27" width="2" height="2"/>
	<rect x="19" y="27" width="2" height="2"/>
	<rect x="15" y="27" width="2" height="2"/>
</g>
</svg>
