<?xml version="1.0" encoding="iso-8859-1"?>
<!-- Generator: Adobe Illustrator 19.0.0, SVG Export Plug-In . SVG Version: 6.00 Build 0)  -->
<svg version="1.1" id="Layer_1" xmlns="http://www.w3.org/2000/svg" xmlns:xlink="http://www.w3.org/1999/xlink" x="0px" y="0px"
	 viewBox="0 0 461.137 461.137" style="enable-background:new 0 0 461.137 461.137;" xml:space="preserve">
<g>
	<g>
		<g>
			<circle cx="230.749" cy="37.709" r="37.709"/>
			<path d="M334.889,108.529h-18.21c-7.528-12.612-21.308-21.091-36.994-21.091c-5.267,0-69.31,0-97.873,0
				c-15.687,0-29.466,8.48-36.994,21.091h-18.571c-5.487,0-9.935,4.449-9.935,9.935v170.888c0,5.487,4.448,9.935,9.935,9.935h56.117
				v140.015c0,12.058,9.775,21.834,21.834,21.834c12.058,0,21.834-9.775,21.834-21.834V299.288h9.427v140.015
				c0,12.058,9.775,21.834,21.834,21.834c12.058,0,21.833-9.775,21.833-21.834V299.288h55.764c5.487,0,9.935-4.449,9.935-9.935
				V118.464C344.825,112.977,340.376,108.529,334.889,108.529z M324.954,279.417H136.182V128.399h188.772V279.417z"/>
			<polygon points="156.135,218.811 166.198,218.811 171.968,208.605 177.739,218.811 187.754,218.811 176.833,202.12 
				188.135,184.951 178.12,184.951 171.968,195.634 165.816,184.951 155.754,184.951 167.056,202.12 			"/>
			<rect x="189.184" y="201.595" width="14.927" height="8.107"/>
			<path d="M218.704,208.415h3.481l5.961,10.396h10.443h0.048h9.442l2.003-6.629h9.013l2.051,6.629h9.443l-11.731-33.86h-8.489
				l-11.761,33.807l-7.123-12.395c2.944-2.083,4.864-5.582,4.864-9.681c0-5.755-4.769-11.731-11.397-11.731h-15.547v33.86h9.299
				V208.415z M254.614,195.491l3.004,10.491h-6.152L254.614,195.491z M218.704,193.059h5.628c1,0,2.575,1.089,2.575,3.624
				c0,2.517-1.347,3.625-2.337,3.625h-5.866V193.059z"/>
			<polygon points="278.268,218.811 287.52,218.811 287.52,207.604 299.204,184.951 289.094,184.951 282.894,199.592 
				276.837,184.951 266.775,184.951 278.268,207.509 			"/>
		</g>
	</g>
</g>
<g>
</g>
<g>
</g>
<g>
</g>
<g>
</g>
<g>
</g>
<g>
</g>
<g>
</g>
<g>
</g>
<g>
</g>
<g>
</g>
<g>
</g>
<g>
</g>
<g>
</g>
<g>
</g>
<g>
</g>
</svg>
